[gd_scene load_steps=3 format=2]

[ext_resource path="res://Main.gd" type="Script" id=1]
[ext_resource path="res://Scenes/Piece.tscn" type="PackedScene" id=2]

[node name="Main" type="Node"]
script = ExtResource( 1 )
Piece = ExtResource( 2 )
